错误,终止执行
連線被拒絕 (Connection refused)
错误,终止执行
連線被拒絕 (Connection refused)
错误,终止执行
連線被拒絕 (Connection refused)
错误,终止执行
連線被拒絕 (Connection refused)
错误,终止执行
連線被拒絕 (Connection refused)
错误,终止执行
連線被拒絕 (Connection refused)
错误,终止执行
連線被拒絕 (Connection refused)
错误,终止执行
連線被拒絕 (Connection refused)
错误,终止执行
連線被拒絕 (Connection refused)
错误,终止执行
連線被拒絕 (Connection refused)
错误,终止执行
連線被拒絕 (Connection refused)
错误,终止执行
連線被拒絕 (Connection refused)
错误,终止执行
連線被拒絕 (Connection refused)
错误,终止执行
連線被拒絕 (Connection refused)
错误,终止执行
連線被拒絕 (Connection refused)
错误,终止执行
連線被拒絕 (Connection refused)
错误,终止执行
連線被拒絕 (Connection refused)
错误,终止执行
連線被拒絕 (Connection refused)
错误,终止执行
連線被拒絕 (Connection refused)
错误,终止执行
連線被拒絕 (Connection refused)
错误,终止执行
連線被拒絕 (Connection refused)
错误,终止执行
連線被拒絕 (Connection refused)
错误,终止执行
連線被拒絕 (Connection refused)
错误,终止执行
連線被拒絕 (Connection refused)
错误,终止执行
連線被拒絕 (Connection refused)
错误,终止执行
連線被拒絕 (Connection refused)
错误,终止执行
連線被拒絕 (Connection refused)
错误,终止执行
連線被拒絕 (Connection refused)
错误,终止执行
連線被拒絕 (Connection refused)
错误,终止执行
連線被拒絕 (Connection refused)
错误,终止执行
連線被拒絕 (Connection refused)
错误,终止执行
連線被拒絕 (Connection refused)
错误,终止执行
連線被拒絕 (Connection refused)
错误,终止执行
連線被拒絕 (Connection refused)
错误,终止执行
連線被拒絕 (Connection refused)
错误,终止执行
連線被拒絕 (Connection refused)
错误,终止执行
連線被拒絕 (Connection refused)
错误,终止执行
連線被拒絕 (Connection refused)
错误,终止执行
連線被拒絕 (Connection refused)
错误,终止执行
連線被拒絕 (Connection refused)
错误,终止执行
連線被拒絕 (Connection refused)
错误,终止执行
連線被拒絕 (Connection refused)
错误,终止执行
連線被拒絕 (Connection refused)
错误,终止执行
連線被拒絕 (Connection refused)
错误,终止执行
連線被拒絕 (Connection refused)
错误,终止执行
連線被拒絕 (Connection refused)
错误,终止执行
連線被拒絕 (Connection refused)
错误,终止执行
連線被拒絕 (Connection refused)
错误,终止执行
連線被拒絕 (Connection refused)
错误,终止执行
連線被拒絕 (Connection refused)
错误,终止执行
連線被拒絕 (Connection refused)
错误,终止执行
連線被拒絕 (Connection refused)
错误,终止执行
連線被拒絕 (Connection refused)
错误,终止执行
連線被拒絕 (Connection refused)
错误,终止执行
連線被拒絕 (Connection refused)
错误,终止执行
連線被拒絕 (Connection refused)
错误,终止执行
連線被拒絕 (Connection refused)
错误,终止执行
連線被拒絕 (Connection refused)
错误,终止执行
連線被拒絕 (Connection refused)
错误,终止执行
連線被拒絕 (Connection refused)
错误,终止执行
連線被拒絕 (Connection refused)
错误,终止执行
連線被拒絕 (Connection refused)
错误,终止执行
連線被拒絕 (Connection refused)
错误,终止执行
連線被拒絕 (Connection refused)
错误,终止执行
連線被拒絕 (Connection refused)
错误,终止执行
連線被拒絕 (Connection refused)
错误,终止执行
連線被拒絕 (Connection refused)
错误,终止执行
連線被拒絕 (Connection refused)
错误,终止执行
連線被拒絕 (Connection refused)
错误,终止执行
連線被拒絕 (Connection refused)
错误,终止执行
連線被拒絕 (Connection refused)
错误,终止执行
連線被拒絕 (Connection refused)
错误,终止执行
連線被拒絕 (Connection refused)
错误,终止执行
連線被拒絕 (Connection refused)
错误,终止执行
連線被拒絕 (Connection refused)
错误,终止执行
連線被拒絕 (Connection refused)
错误,终止执行
連線被拒絕 (Connection refused)
错误,终止执行
連線被拒絕 (Connection refused)
错误,终止执行
連線被拒絕 (Connection refused)
错误,终止执行
連線被拒絕 (Connection refused)
错误,终止执行
連線被拒絕 (Connection refused)
错误,终止执行
連線被拒絕 (Connection refused)
错误,终止执行
連線被拒絕 (Connection refused)
错误,终止执行
連線被拒絕 (Connection refused)
错误,终止执行
連線被拒絕 (Connection refused)
错误,终止执行
連線被拒絕 (Connection refused)
错误,终止执行
連線被拒絕 (Connection refused)
错误,终止执行
連線被拒絕 (Connection refused)
错误,终止执行
連線被拒絕 (Connection refused)
错误,终止执行
連線被拒絕 (Connection refused)
错误,终止执行
連線被拒絕 (Connection refused)
错误,终止执行
連線被拒絕 (Connection refused)
错误,终止执行
連線被拒絕 (Connection refused)
错误,终止执行
連線被拒絕 (Connection refused)
错误,终止执行
連線被拒絕 (Connection refused)
错误,终止执行
連線被拒絕 (Connection refused)
错误,终止执行
連線被拒絕 (Connection refused)
错误,终止执行
連線被拒絕 (Connection refused)
错误,终止执行
連線被拒絕 (Connection refused)
错误,终止执行
連線被拒絕 (Connection refused)
错误,终止执行
連線被拒絕 (Connection refused)
错误,终止执行
連線被拒絕 (Connection refused)
错误,终止执行
連線被拒絕 (Connection refused)
错误,终止执行
連線被拒絕 (Connection refused)
错误,终止执行
連線被拒絕 (Connection refused)
错误,终止执行
連線被拒絕 (Connection refused)
错误,终止执行
連線被拒絕 (Connection refused)
错误,终止执行
連線被拒絕 (Connection refused)
错误,终止执行
連線被拒絕 (Connection refused)
错误,终止执行
連線被拒絕 (Connection refused)
错误,终止执行
連線被拒絕 (Connection refused)
错误,终止执行
連線被拒絕 (Connection refused)
错误,终止执行
連線被拒絕 (Connection refused)
错误,终止执行
連線被拒絕 (Connection refused)
错误,终止执行
連線被拒絕 (Connection refused)
错误,终止执行
連線被拒絕 (Connection refused)
错误,终止执行
連線被拒絕 (Connection refused)
错误,终止执行
連線被拒絕 (Connection refused)
错误,终止执行
連線被拒絕 (Connection refused)
错误,终止执行
連線被拒絕 (Connection refused)
错误,终止执行
連線被拒絕 (Connection refused)
错误,终止执行
連線被拒絕 (Connection refused)
错误,终止执行
連線被拒絕 (Connection refused)
错误,终止执行
連線被拒絕 (Connection refused)
错误,终止执行
連線被拒絕 (Connection refused)
错误,终止执行
連線被拒絕 (Connection refused)
错误,终止执行
連線被拒絕 (Connection refused)
错误,终止执行
連線被拒絕 (Connection refused)
错误,终止执行
連線被拒絕 (Connection refused)
错误,终止执行
連線被拒絕 (Connection refused)
错误,终止执行
連線被拒絕 (Connection refused)
错误,终止执行
連線被拒絕 (Connection refused)
错误,终止执行
連線被拒絕 (Connection refused)
错误,终止执行
連線被拒絕 (Connection refused)
错误,终止执行
連線被拒絕 (Connection refused)
错误,终止执行
連線被拒絕 (Connection refused)
错误,终止执行
連線被拒絕 (Connection refused)
错误,终止执行
連線被拒絕 (Connection refused)
错误,终止执行
連線被拒絕 (Connection refused)
错误,终止执行
連線被拒絕 (Connection refused)
错误,终止执行
連線被拒絕 (Connection refused)
错误,终止执行
連線被拒絕 (Connection refused)
错误,终止执行
連線被拒絕 (Connection refused)
错误,终止执行
連線被拒絕 (Connection refused)
错误,终止执行
連線被拒絕 (Connection refused)
错误,终止执行
連線被拒絕 (Connection refused)
错误,终止执行
連線被拒絕 (Connection refused)
错误,终止执行
連線被拒絕 (Connection refused)
错误,终止执行
連線被拒絕 (Connection refused)
错误,终止执行
連線被拒絕 (Connection refused)
错误,终止执行
連線被拒絕 (Connection refused)
错误,终止执行
連線被拒絕 (Connection refused)
错误,终止执行
連線被拒絕 (Connection refused)
错误,终止执行
連線被拒絕 (Connection refused)
错误,终止执行
連線被拒絕 (Connection refused)
错误,终止执行
連線被拒絕 (Connection refused)
错误,终止执行
連線被拒絕 (Connection refused)
错误,终止执行
連線被拒絕 (Connection refused)
错误,终止执行
連線被拒絕 (Connection refused)
错误,终止执行
連線被拒絕 (Connection refused)
错误,终止执行
連線被拒絕 (Connection refused)
错误,终止执行
連線被拒絕 (Connection refused)
错误,终止执行
連線被拒絕 (Connection refused)
错误,终止执行
連線被拒絕 (Connection refused)
错误,终止执行
連線被拒絕 (Connection refused)
错误,终止执行
連線被拒絕 (Connection refused)
错误,终止执行
連線被拒絕 (Connection refused)
错误,终止执行
連線被拒絕 (Connection refused)
错误,终止执行
連線被拒絕 (Connection refused)
错误,终止执行
連線被拒絕 (Connection refused)
错误,终止执行
連線被拒絕 (Connection refused)
错误,终止执行
連線被拒絕 (Connection refused)
错误,终止执行
連線被拒絕 (Connection refused)
错误,终止执行
連線被拒絕 (Connection refused)
错误,终止执行
連線被拒絕 (Connection refused)
错误,终止执行
連線被拒絕 (Connection refused)
错误,终止执行
連線被拒絕 (Connection refused)
错误,终止执行
連線被拒絕 (Connection refused)
错误,终止执行
連線被拒絕 (Connection refused)
错误,终止执行
連線被拒絕 (Connection refused)
错误,终止执行
連線被拒絕 (Connection refused)
错误,终止执行
連線被拒絕 (Connection refused)
错误,终止执行
連線被拒絕 (Connection refused)
错误,终止执行
連線被拒絕 (Connection refused)
错误,终止执行
連線被拒絕 (Connection refused)
错误,终止执行
連線被拒絕 (Connection refused)
错误,终止执行
連線被拒絕 (Connection refused)
错误,终止执行
連線被拒絕 (Connection refused)
错误,终止执行
連線被拒絕 (Connection refused)
错误,终止执行
連線被拒絕 (Connection refused)
错误,终止执行
連線被拒絕 (Connection refused)
错误,终止执行
連線被拒絕 (Connection refused)
错误,终止执行
連線被拒絕 (Connection refused)
错误,终止执行
連線被拒絕 (Connection refused)
错误,终止执行
連線被拒絕 (Connection refused)
错误,终止执行
連線被拒絕 (Connection refused)
错误,终止执行
連線被拒絕 (Connection refused)
错误,终止执行
連線被拒絕 (Connection refused)
错误,终止执行
連線被拒絕 (Connection refused)
错误,终止执行
連線被拒絕 (Connection refused)
错误,终止执行
連線被拒絕 (Connection refused)
错误,终止执行
連線被拒絕 (Connection refused)
错误,终止执行
連線被拒絕 (Connection refused)
错误,终止执行
連線被拒絕 (Connection refused)
错误,终止执行
連線被拒絕 (Connection refused)
错误,终止执行
連線被拒絕 (Connection refused)
错误,终止执行
連線被拒絕 (Connection refused)
错误,终止执行
連線被拒絕 (Connection refused)
错误,终止执行
連線被拒絕 (Connection refused)
错误,终止执行
連線被拒絕 (Connection refused)
错误,终止执行
連線被拒絕 (Connection refused)
错误,终止执行
連線被拒絕 (Connection refused)
错误,终止执行
連線被拒絕 (Connection refused)
错误,终止执行
連線被拒絕 (Connection refused)
错误,终止执行
連線被拒絕 (Connection refused)
错误,终止执行
連線被拒絕 (Connection refused)
错误,终止执行
連線被拒絕 (Connection refused)
错误,终止执行
連線被拒絕 (Connection refused)
错误,终止执行
連線被拒絕 (Connection refused)
错误,终止执行
連線被拒絕 (Connection refused)
错误,终止执行
連線被拒絕 (Connection refused)
错误,终止执行
連線被拒絕 (Connection refused)
错误,终止执行
連線被拒絕 (Connection refused)
错误,终止执行
連線被拒絕 (Connection refused)
错误,终止执行
連線被拒絕 (Connection refused)
错误,终止执行
連線被拒絕 (Connection refused)
错误,终止执行
連線被拒絕 (Connection refused)
错误,终止执行
連線被拒絕 (Connection refused)
错误,终止执行
連線被拒絕 (Connection refused)
错误,终止执行
連線被拒絕 (Connection refused)
错误,终止执行
連線被拒絕 (Connection refused)
错误,终止执行
連線被拒絕 (Connection refused)
错误,终止执行
連線被拒絕 (Connection refused)
错误,终止执行
連線被拒絕 (Connection refused)
错误,终止执行
連線被拒絕 (Connection refused)
错误,终止执行
連線被拒絕 (Connection refused)
错误,终止执行
連線被拒絕 (Connection refused)
错误,终止执行
連線被拒絕 (Connection refused)
错误,终止执行
連線被拒絕 (Connection refused)
错误,终止执行
連線被拒絕 (Connection refused)
错误,终止执行
連線被拒絕 (Connection refused)
错误,终止执行
連線被拒絕 (Connection refused)
错误,终止执行
連線被拒絕 (Connection refused)
错误,终止执行
連線被拒絕 (Connection refused)
错误,终止执行
連線被拒絕 (Connection refused)
错误,终止执行
連線被拒絕 (Connection refused)
错误,终止执行
連線被拒絕 (Connection refused)
错误,终止执行
連線被拒絕 (Connection refused)
错误,终止执行
連線被拒絕 (Connection refused)
错误,终止执行
連線被拒絕 (Connection refused)
错误,终止执行
連線被拒絕 (Connection refused)
错误,终止执行
連線被拒絕 (Connection refused)
错误,终止执行
連線被拒絕 (Connection refused)
错误,终止执行
連線被拒絕 (Connection refused)
错误,终止执行
連線被拒絕 (Connection refused)
错误,终止执行
連線被拒絕 (Connection refused)
错误,终止执行
連線被拒絕 (Connection refused)
错误,终止执行
連線被拒絕 (Connection refused)
错误,终止执行
連線被拒絕 (Connection refused)
错误,终止执行
連線被拒絕 (Connection refused)
错误,终止执行
連線被拒絕 (Connection refused)
错误,终止执行
連線被拒絕 (Connection refused)
错误,终止执行
連線被拒絕 (Connection refused)
错误,终止执行
連線被拒絕 (Connection refused)
错误,终止执行
連線被拒絕 (Connection refused)
错误,终止执行
連線被拒絕 (Connection refused)
错误,终止执行
連線被拒絕 (Connection refused)
错误,终止执行
連線被拒絕 (Connection refused)
错误,终止执行
連線被拒絕 (Connection refused)
错误,终止执行
連線被拒絕 (Connection refused)
错误,终止执行
連線被拒絕 (Connection refused)
错误,终止执行
連線被拒絕 (Connection refused)
错误,终止执行
連線被拒絕 (Connection refused)
错误,终止执行
連線被拒絕 (Connection refused)
错误,终止执行
連線被拒絕 (Connection refused)
错误,终止执行
連線被拒絕 (Connection refused)
错误,终止执行
連線被拒絕 (Connection refused)
错误,终止执行
連線被拒絕 (Connection refused)
错误,终止执行
連線被拒絕 (Connection refused)
错误,终止执行
連線被拒絕 (Connection refused)
错误,终止执行
連線被拒絕 (Connection refused)
错误,终止执行
連線被拒絕 (Connection refused)
错误,终止执行
連線被拒絕 (Connection refused)
错误,终止执行
連線被拒絕 (Connection refused)
错误,终止执行
連線被拒絕 (Connection refused)
错误,终止执行
連線被拒絕 (Connection refused)
错误,终止执行
連線被拒絕 (Connection refused)
错误,终止执行
連線被拒絕 (Connection refused)
错误,终止执行
連線被拒絕 (Connection refused)
错误,终止执行
連線被拒絕 (Connection refused)
错误,终止执行
連線被拒絕 (Connection refused)
错误,终止执行
連線被拒絕 (Connection refused)
错误,终止执行
連線被拒絕 (Connection refused)
错误,终止执行
連線被拒絕 (Connection refused)
错误,终止执行
連線被拒絕 (Connection refused)
错误,终止执行
連線被拒絕 (Connection refused)
错误,终止执行
連線被拒絕 (Connection refused)
错误,终止执行
連線被拒絕 (Connection refused)
错误,终止执行
連線被拒絕 (Connection refused)
错误,终止执行
連線被拒絕 (Connection refused)
错误,终止执行
連線被拒絕 (Connection refused)
错误,终止执行
連線被拒絕 (Connection refused)
错误,终止执行
連線被拒絕 (Connection refused)
错误,终止执行
連線被拒絕 (Connection refused)
错误,终止执行
連線被拒絕 (Connection refused)
错误,终止执行
連線被拒絕 (Connection refused)
错误,终止执行
連線被拒絕 (Connection refused)
错误,终止执行
連線被拒絕 (Connection refused)
错误,终止执行
連線被拒絕 (Connection refused)
错误,终止执行
連線被拒絕 (Connection refused)
错误,终止执行
連線被拒絕 (Connection refused)
错误,终止执行
連線被拒絕 (Connection refused)
错误,终止执行
連線被拒絕 (Connection refused)
错误,终止执行
連線被拒絕 (Connection refused)
错误,终止执行
連線被拒絕 (Connection refused)
错误,终止执行
連線被拒絕 (Connection refused)
错误,终止执行
連線被拒絕 (Connection refused)
错误,终止执行
連線被拒絕 (Connection refused)
错误,终止执行
連線被拒絕 (Connection refused)
错误,终止执行
連線被拒絕 (Connection refused)
错误,终止执行
連線被拒絕 (Connection refused)
错误,终止执行
連線被拒絕 (Connection refused)
错误,终止执行
連線被拒絕 (Connection refused)
错误,终止执行
連線被拒絕 (Connection refused)
错误,终止执行
連線被拒絕 (Connection refused)
错误,终止执行
連線被拒絕 (Connection refused)
错误,终止执行
連線被拒絕 (Connection refused)
错误,终止执行
連線被拒絕 (Connection refused)
错误,终止执行
連線被拒絕 (Connection refused)
错误,终止执行
連線被拒絕 (Connection refused)
错误,终止执行
連線被拒絕 (Connection refused)
错误,终止执行
連線被拒絕 (Connection refused)
错误,终止执行
連線被拒絕 (Connection refused)
错误,终止执行
連線被拒絕 (Connection refused)
错误,终止执行
連線被拒絕 (Connection refused)
错误,终止执行
連線被拒絕 (Connection refused)
错误,终止执行
連線被拒絕 (Connection refused)
错误,终止执行
連線被拒絕 (Connection refused)
错误,终止执行
連線被拒絕 (Connection refused)
错误,终止执行
連線被拒絕 (Connection refused)
错误,终止执行
連線被拒絕 (Connection refused)
错误,终止执行
連線被拒絕 (Connection refused)
错误,终止执行
連線被拒絕 (Connection refused)
错误,终止执行
連線被拒絕 (Connection refused)
错误,终止执行
連線被拒絕 (Connection refused)
错误,终止执行
連線被拒絕 (Connection refused)
错误,终止执行
連線被拒絕 (Connection refused)
错误,终止执行
連線被拒絕 (Connection refused)
错误,终止执行
連線被拒絕 (Connection refused)
错误,终止执行
連線被拒絕 (Connection refused)
错误,终止执行
連線被拒絕 (Connection refused)
错误,终止执行
連線被拒絕 (Connection refused)
错误,终止执行
連線被拒絕 (Connection refused)
错误,终止执行
連線被拒絕 (Connection refused)
错误,终止执行
連線被拒絕 (Connection refused)
错误,终止执行
連線被拒絕 (Connection refused)
错误,终止执行
連線被拒絕 (Connection refused)
错误,终止执行
連線被拒絕 (Connection refused)
错误,终止执行
連線被拒絕 (Connection refused)
错误,终止执行
連線被拒絕 (Connection refused)
错误,终止执行
連線被拒絕 (Connection refused)
错误,终止执行
連線被拒絕 (Connection refused)
错误,终止执行
連線被拒絕 (Connection refused)
错误,终止执行
連線被拒絕 (Connection refused)
错误,终止执行
連線被拒絕 (Connection refused)
错误,终止执行
連線被拒絕 (Connection refused)
错误,终止执行
連線被拒絕 (Connection refused)
错误,终止执行
連線被拒絕 (Connection refused)
错误,终止执行
連線被拒絕 (Connection refused)
错误,终止执行
連線被拒絕 (Connection refused)
错误,终止执行
連線被拒絕 (Connection refused)
错误,终止执行
連線被拒絕 (Connection refused)
错误,终止执行
連線被拒絕 (Connection refused)
错误,终止执行
連線被拒絕 (Connection refused)
错误,终止执行
連線被拒絕 (Connection refused)
错误,终止执行
連線被拒絕 (Connection refused)
错误,终止执行
連線被拒絕 (Connection refused)
错误,终止执行
連線被拒絕 (Connection refused)
错误,终止执行
連線被拒絕 (Connection refused)
错误,终止执行
連線被拒絕 (Connection refused)
错误,终止执行
連線被拒絕 (Connection refused)
错误,终止执行
連線被拒絕 (Connection refused)
错误,终止执行
連線被拒絕 (Connection refused)
错误,终止执行
連線被拒絕 (Connection refused)
错误,终止执行
連線被拒絕 (Connection refused)
错误,终止执行
連線被拒絕 (Connection refused)
错误,终止执行
連線被拒絕 (Connection refused)
错误,终止执行
連線被拒絕 (Connection refused)
错误,终止执行
連線被拒絕 (Connection refused)
错误,终止执行
連線被拒絕 (Connection refused)
错误,终止执行
連線被拒絕 (Connection refused)
错误,终止执行
連線被拒絕 (Connection refused)
错误,终止执行
連線被拒絕 (Connection refused)
错误,终止执行
連線被拒絕 (Connection refused)
错误,终止执行
連線被拒絕 (Connection refused)
错误,终止执行
連線被拒絕 (Connection refused)
错误,终止执行
連線被拒絕 (Connection refused)
错误,终止执行
連線被拒絕 (Connection refused)
错误,终止执行
連線被拒絕 (Connection refused)
错误,终止执行
連線被拒絕 (Connection refused)
错误,终止执行
連線被拒絕 (Connection refused)
错误,终止执行
連線被拒絕 (Connection refused)
错误,终止执行
連線被拒絕 (Connection refused)
错误,终止执行
連線被拒絕 (Connection refused)
错误,终止执行
連線被拒絕 (Connection refused)
错误,终止执行
連線被拒絕 (Connection refused)
错误,终止执行
連線被拒絕 (Connection refused)
错误,终止执行
連線被拒絕 (Connection refused)
错误,终止执行
連線被拒絕 (Connection refused)
错误,终止执行
連線被拒絕 (Connection refused)
错误,终止执行
連線被拒絕 (Connection refused)
错误,终止执行
連線被拒絕 (Connection refused)
错误,终止执行
連線被拒絕 (Connection refused)
错误,终止执行
連線被拒絕 (Connection refused)
错误,终止执行
連線被拒絕 (Connection refused)
错误,终止执行
連線被拒絕 (Connection refused)
错误,终止执行
連線被拒絕 (Connection refused)
错误,终止执行
連線被拒絕 (Connection refused)
错误,终止执行
連線被拒絕 (Connection refused)
